{
    "/js/app.js": "/js/app.js?id=9a3ad0414fb6b2ba64d2",
    "/css/app.css": "/css/app.css?id=e18837f474ade2eeb98d",
    "/js/vendor.js": "/js/vendor.js?id=850e5aa62782561f86a3",
    "/js/manifest.js": "/js/manifest.js?id=cba4df335e99a7811c0e"
}