<?xml version="1.0" standalone="no"?>
<!DOCTYPE svg PUBLIC "-//W3C//DTD SVG 1.1//EN" "http://www.w3.org/Graphics/SVG/1.1/DTD/svg11.dtd">
<svg xmlns="http://www.w3.org/2000/svg">
<metadata>Copyright (C) 2018 by original authors @ fontello.com</metadata>
<defs>
<font id="naus" horiz-adv-x="1000" >
<font-face font-family="naus" font-weight="400" font-stretch="normal" units-per-em="1000" ascent="850" descent="-150" />
<missing-glyph horiz-adv-x="1000" />
<glyph glyph-name="close" unicode="&#xe800;" d="M654 349l346-346-154-154-346 346-346-346-154 154 346 346-346 346 154 154 346-346 346 346 154-154z" horiz-adv-x="1000" />

<glyph glyph-name="down" unicode="&#xe801;" d="M571 457q0-14-10-25l-250-250q-11-11-25-11t-25 11l-250 250q-11 11-11 25t11 25 25 11h500q14 0 25-11t10-25z" horiz-adv-x="571.4" />

<glyph glyph-name="up" unicode="&#xe802;" d="M571 171q0-14-10-25t-25-10h-500q-15 0-25 10t-11 25 11 26l250 250q10 10 25 10t25-10l250-250q10-11 10-26z" horiz-adv-x="571.4" />

<glyph glyph-name="search" unicode="&#xe803;" d="M746 209l254-255-105-105-254 254q-106-72-232-72-169 0-289 120t-120 289 120 289 289 120 289-120 120-289q0-127-72-231z m-65 231q0 113-79 193t-193 80-193-80-80-193 80-192 193-80 193 80 79 192z" horiz-adv-x="1000" />

<glyph glyph-name="flash" unicode="&#xe804;" d="M598 349q23-12 26-39t-16-45l-391-370q-14-14-35-14-28 0-43 24t-6 49l113 270-220 128q-22 12-25 38t15 45l391 370q11 14 35 14 21 0 37-16t15-36q0-13-5-23l-111-267z" horiz-adv-x="624" />

<glyph glyph-name="calendar" unicode="&#xe805;" d="M71-79h161v161h-161v-161z m197 0h178v161h-178v-161z m-197 197h161v178h-161v-178z m197 0h178v178h-178v-178z m-197 214h161v161h-161v-161z m411-411h179v161h-179v-161z m-214 411h178v161h-178v-161z m428-411h161v161h-161v-161z m-214 197h179v178h-179v-178z m-196 482v161q0 7-6 12t-12 6h-36q-7 0-12-6t-6-12v-161q0-7 6-13t12-5h36q7 0 12 5t6 13z m410-482h161v178h-161v-178z m-214 214h179v161h-179v-161z m214 0h161v161h-161v-161z m18 268v161q0 7-5 12t-13 6h-35q-7 0-13-6t-5-12v-161q0-7 5-13t13-5h35q8 0 13 5t5 13z m215 36v-715q0-29-22-50t-50-21h-786q-29 0-50 21t-21 50v715q0 29 21 50t50 21h72v54q0 37 26 63t63 26h36q37 0 63-26t26-63v-54h214v54q0 37 27 63t63 26h35q37 0 64-26t26-63v-54h71q29 0 50-21t22-50z" horiz-adv-x="928.6" />

<glyph glyph-name="language" unicode="&#xe806;" d="M988 306q30-82-10-176t-134-160q-10 0-12 2t-16 19-16 19q-2 6 2 10 86 60 117 152t-11 148q-16-38-39-76t-59-80-86-65-106-15q-52 6-84 41t-32 93q0 84 60 148 50 50 114 66l-2 100q-140-24-146-24-6-2-10 4 0 2-5 29t-5 31q-2 2 1 4t7 2l156 28q0 110-2 114 0 8 8 8 46 0 52 2 10 0 10-8l0-104q158 22 164 22 8 4 10-6 0-2 4-23t4-25q4-10-4-12l-176-30 0-102 12 0q86 0 148-36t86-100z m-370-160q28-6 62 6l-4 214q-34-12-60-40-44-44-44-108 0-66 46-72z m122 28q28 24 58 68t45 79 7 41q-36 18-96 18-2 0-6-1t-6-1z m-448 382q10-28 53-165t83-261 40-126q0-4-4-4l-86 0q-6 0-6 4l-50 166-176 0q-48-164-50-166 0-4-6-4l-86 0q-4 0-4 4 10 18 176 552 2 8 10 8l96 0q10 0 10-8z m-130-316l144 0-72 264z" horiz-adv-x="1001" />

<glyph glyph-name="clock" unicode="&#xe807;" d="M406 757c224 0 407-182 407-407 0-223-183-406-407-406-225 0-406 183-406 406 0 225 181 407 406 407z m0-723c175 0 317 143 317 318s-142 316-317 316-317-141-317-316 142-318 317-318z m120 268l-127 0c-14 0-25 5-33 15l-143 156c-39 41 25 101 65 61l130-142 108 0c62 0 55-90 0-90z m-145 287c0 13 12 24 24 24s24-11 24-24-11-24-24-24-24 12-24 24z m167-65c0 13 11 24 23 24s24-11 24-24-11-24-24-24-23 12-23 24z m73-171c0 12 12 24 24 24s24-12 24-24-11-24-24-24-24 11-24 24z m-66-168c0 13 11 24 24 24s24-11 24-24-12-23-24-23-24 11-24 23z m-175-72c0 12 11 24 24 24s24-12 24-24-12-24-24-24-24 11-24 24z m-162 65c0 12 11 24 23 24s24-12 24-24-11-24-24-24-23 11-23 24z m-75 175c0 12 11 24 23 24s24-12 24-24-11-24-24-24-23 11-23 24z" horiz-adv-x="813" />

<glyph glyph-name="star" unicode="&#xe808;" d="M929 489q0-12-15-27l-202-197 48-279q0-4 0-12 0-11-6-19t-17-9q-10 0-22 7l-251 132-250-132q-12-7-23-7-11 0-17 9t-6 19q0 4 1 12l48 279-203 197q-14 15-14 27 0 21 31 26l280 40 126 254q11 23 27 23t28-23l125-254 280-40q32-5 32-26z" horiz-adv-x="928.6" />

<glyph glyph-name="star-empty" unicode="&#xe809;" d="M635 290l170 166-235 34-106 213-105-213-236-34 171-166-41-235 211 111 211-111z m294 199q0-12-15-27l-202-197 48-279q0-4 0-12 0-28-23-28-10 0-22 7l-251 132-250-132q-12-7-23-7-11 0-17 9t-6 19q0 4 1 12l48 279-203 197q-14 15-14 27 0 21 31 26l280 40 126 254q11 23 27 23t28-23l125-254 280-40q32-5 32-26z" horiz-adv-x="928.6" />

<glyph glyph-name="right-open" unicode="&#xe80a;" d="M618 361l-414-415q-11-10-25-10t-25 10l-93 93q-11 11-11 25t11 25l296 297-296 296q-11 11-11 25t11 25l93 93q10 11 25 11t25-11l414-414q10-11 10-25t-10-25z" horiz-adv-x="714.3" />

<glyph glyph-name="plus" unicode="&#xe80b;" d="M550 400q30 0 30-50t-30-50l-210 0 0-210q0-30-50-30t-50 30l0 210-210 0q-30 0-30 50t30 50l210 0 0 210q0 30 50 30t50-30l0-210 210 0z" horiz-adv-x="580" />

<glyph glyph-name="minus" unicode="&#xe80c;" d="M550 400q30 0 30-50t-30-50l-520 0q-30 0-30 50t30 50l520 0z" horiz-adv-x="580" />

<glyph glyph-name="mobile" unicode="&#xe80d;" d="M480 840q42 0 71-29t29-71l0-780q0-40-29-70t-71-30l-380 0q-40 0-70 30t-30 70l0 780q0 42 30 71t70 29l380 0z m-190-940q30 0 50 15t20 35q0 22-20 36t-50 14q-28 0-49-15t-21-35 21-35 49-15z m210 150l0 660-420 0 0-660 420 0z" horiz-adv-x="580" />

<glyph glyph-name="chat" unicode="&#xe80e;" d="M786 421q0-77-53-143t-143-104-197-38q-48 0-98 9-70-49-155-72-21-5-48-9h-2q-6 0-12 5t-6 12q-1 1-1 3t1 4 1 3l1 3t2 3 2 3 3 3 2 2q3 3 13 14t15 16 12 17 14 21 11 25q-69 40-108 98t-40 125q0 78 53 144t143 104 197 38 197-38 143-104 53-144z m214-142q0-67-40-126t-108-98q5-14 11-25t14-21 13-16 14-17 13-14q0 0 2-2t3-3 2-3 2-3l1-3t1-3 1-4-1-3q-2-8-7-13t-12-4q-28 4-48 9-86 23-156 72-50-9-98-9-151 0-263 74 32-3 49-3 90 0 172 25t148 72q69 52 107 119t37 141q0 43-13 85 72-39 114-99t42-128z" horiz-adv-x="1000" />

<glyph glyph-name="home" unicode="&#xe80f;" d="M888 336q16-16 11-27t-27-11l-84 0 0-310q0-14-1-21t-8-13-23-6l-204 0 0 310-204 0 0-310-194 0q-28 0-35 10t-7 30l0 310-84 0q-22 0-27 11t11 27l400 402q16 16 38 16t38-16z" horiz-adv-x="900" />

<glyph glyph-name="phone" unicode="&#xe810;" d="M786 158q0-15-6-39t-12-38q-11-28-68-60-52-28-103-28-15 0-30 2t-32 7-26 8-31 11-28 10q-54 20-97 47-71 44-148 120t-120 148q-27 43-46 97-2 5-10 28t-12 31-8 26-7 32-2 29q0 52 29 104 31 57 59 68 14 6 38 12t39 6q8 0 12-2 10-3 30-42 6-11 16-31t20-35 17-30q2-2 10-14t12-20 4-16q0-11-16-27t-35-31-34-30-16-25q0-5 3-13t4-11 8-14 7-10q42-77 97-132t131-97q1 0 10-6t14-8 11-5 13-2q10 0 25 16t30 34 31 35 28 16q7 0 15-4t20-12 14-10q14-8 30-17t36-20 30-17q39-19 42-29 2-4 2-12z" horiz-adv-x="785.7" />

<glyph glyph-name="mail" unicode="&#xe811;" d="M0-29l324 342 176-100 176 100 324-342-1000 0z m0 114l0 414 254-147z m0 503l0 141 1000 0 0-141-500-285z m746-236l254 147 0-414z" horiz-adv-x="1000" />

<glyph glyph-name="ok" unicode="&#xe812;" d="M933 534q0-22-16-38l-404-404-76-76q-16-15-38-15t-38 15l-76 76-202 202q-15 16-15 38t15 38l76 76q16 16 38 16t38-16l164-165 366 367q16 16 38 16t38-16l76-76q16-15 16-38z" horiz-adv-x="1000" />

<glyph glyph-name="menu" unicode="&#xf0c9;" d="M857 100v-71q0-15-10-25t-26-11h-785q-15 0-25 11t-11 25v71q0 15 11 25t25 11h785q15 0 26-11t10-25z m0 286v-72q0-14-10-25t-26-10h-785q-15 0-25 10t-11 25v72q0 14 11 25t25 10h785q15 0 26-10t10-25z m0 285v-71q0-14-10-25t-26-11h-785q-15 0-25 11t-11 25v71q0 15 11 26t25 10h785q15 0 26-10t10-26z" horiz-adv-x="857.1" />

<glyph glyph-name="doc-text" unicode="&#xf0f6;" d="M819 638q16-16 27-42t11-50v-642q0-23-15-38t-38-16h-750q-23 0-38 16t-16 38v892q0 23 16 38t38 16h500q22 0 49-11t42-27z m-248 136v-210h210q-5 17-12 23l-175 175q-6 7-23 12z m215-853v572h-232q-23 0-38 16t-16 37v233h-429v-858h715z m-572 483q0 7 5 12t13 5h393q8 0 13-5t5-12v-36q0-8-5-13t-13-5h-393q-8 0-13 5t-5 13v36z m411-125q8 0 13-5t5-13v-36q0-8-5-13t-13-5h-393q-8 0-13 5t-5 13v36q0 8 5 13t13 5h393z m0-143q8 0 13-5t5-13v-36q0-8-5-13t-13-5h-393q-8 0-13 5t-5 13v36q0 8 5 13t13 5h393z" horiz-adv-x="857.1" />

<glyph glyph-name="child" unicode="&#xf1ae;" d="M663 544l-163-163v-460q0-25-18-44t-44-18-45 18-18 44v215h-36v-215q0-25-18-44t-44-18-44 18-19 44v460l-163 163q-15 16-15 38t15 38q17 16 39 16t37-16l128-127h205l127 127q16 16 38 16t38-16q16-16 16-38t-16-38z m-181 92q0-52-36-89t-89-36-88 36-37 89 37 88 88 37 89-37 36-88z" horiz-adv-x="714.3" />

<glyph glyph-name="discount" unicode="&#xf295;" d="M714 136q0 29-21 50t-50 21-50-21-22-50 22-50 50-22 50 22 21 50z m-428 428q0 29-21 51t-51 21-50-21-21-51 21-50 50-21 51 21 21 50z m571-428q0-89-63-152t-151-63-152 63-62 152 62 151 152 63 151-63 63-151z m-53 607q0-11-8-21l-589-786q-11-15-28-15h-90q-14 0-25 11t-10 25q0 11 7 21l589 786q11 15 29 15h89q14 0 25-11t11-25z m-375-179q0-88-63-151t-152-63-151 63-63 151 63 152 151 63 152-63 63-152z" horiz-adv-x="857.1" />

<glyph glyph-name="facebook" unicode="&#xf308;" d="M696 779q67 0 114-48t47-113v-536q0-66-47-113t-114-48h-104v333h111l16 129h-127v83q0 31 13 46t51 16l68 1v115q-35 5-100 5-75 0-121-44t-45-127v-95h-112v-129h112v-333h-297q-67 0-114 48t-47 113v536q0 66 47 113t114 48h535z" horiz-adv-x="857.1" />

<glyph glyph-name="instagram" unicode="&#xf31f;" d="M604 339c0 54-45 98-99 98-54 0-98-44-98-98 0-54 44-98 98-98 54 0 99 44 99 98z m146 510h-500c-137 0-249-111-249-248v-69h367c39 27 86 43 137 43 51 0 99-16 137-43h358v69c0 137-112 248-250 248z m101-236c0-15-12-28-28-28h-85c-16 0-28 13-28 28v85c0 16 12 28 28 28h85c16 0 28-12 28-28v-85z m-109-274c0-130-106-236-237-236-131 0-237 106-237 236 0 36 8 70 23 101h-290v-341c0-137 112-248 249-248h500c138 0 250 111 250 248v341h-280c14-31 22-65 22-101z" horiz-adv-x="1000" />
</font>
</defs>
</svg>